SumrunSheikhProject1
…
data("college_grad_students")
data("college_recent_grads")
currentgrad <- college_grad_students
recentgrad <- college_recent_grads

1. Tidying: Rearranging Wide/Long

currentgrad %>% pivot_wider(names_from = "major_category", values_from = "grad_total")

## # A tibble: 173 x 36
##    major_code major grad_sample_size grad_employed grad_employed_f…
##         <int> <chr>            <int>         <int>            <int>
##  1       5601 Cons…              200          7098             6511
##  2       6004 Comm…              882         40492            29553
##  3       6211 Hosp…              437         18368            14784
##  4       2201 Cosm…               72          3590             2701
##  5       2001 Comm…              171          7512             5622
##  6       3201 Cour…               22          1008              860
##  7       6206 Mark…             3738        151570           123045
##  8       1101 Agri…              386         13104            11207
##  9       2101 Comp…               98          4716             3981
## 10       1904 Adve…              688         28517            22523
## # … with 163 more rows, and 31 more variables: grad_unemployed <int>,
## #   grad_unemployment_rate <dbl>, grad_p25th <dbl>, grad_median <dbl>,
## #   grad_p75th <int>, nongrad_total <int>, nongrad_employed <int>,
## #   nongrad_employed_fulltime_yearround <int>, nongrad_unemployed <int>,
## #   nongrad_unemployment_rate <dbl>, nongrad_p25th <dbl>, nongrad_median <dbl>,
## #   nongrad_p75th <dbl>, grad_share <dbl>, grad_premium <dbl>, `Industrial Arts
## #   & Consumer Services` <int>, Arts <int>, Business <int>, `Computers &
## #   Mathematics` <int>, `Law & Public Policy` <int>, `Agriculture & Natural
## #   Resources` <int>, `Communications & Journalism` <int>, Engineering <int>,
## #   `Social Science` <int>, Health <int>, Interdisciplinary <int>, `Physical
## #   Sciences` <int>, `Humanities & Liberal Arts` <int>, `Psychology & Social
## #   Work` <int>, `Biology & Life Science` <int>, Education <int>

wider1 <- currentgrad %>% pivot_wider(names_from = "major_category", values_from = "grad_total")
wider1 %>% pivot_longer(c("Industrial Arts & Consumer Services", "Arts", "Business", "Computers & Mathematics", "Law & Public Policy", "Agriculture & Natural Resources", "Communications & Journalism", "Engineering", "Social Science", "Health", "Interdisciplinary", "Physical Sciences", "Humanities & Liberal Arts", "Psychology & Social Work", "Biology & Life Science", "Education"), names_to = "major_category", values_to = "grad_total")

## # A tibble: 2,768 x 22
##    major_code major grad_sample_size grad_employed grad_employed_f…
##         <int> <chr>            <int>         <int>            <int>
##  1       5601 Cons…              200          7098             6511
##  2       5601 Cons…              200          7098             6511
##  3       5601 Cons…              200          7098             6511
##  4       5601 Cons…              200          7098             6511
##  5       5601 Cons…              200          7098             6511
##  6       5601 Cons…              200          7098             6511
##  7       5601 Cons…              200          7098             6511
##  8       5601 Cons…              200          7098             6511
##  9       5601 Cons…              200          7098             6511
## 10       5601 Cons…              200          7098             6511
## # … with 2,758 more rows, and 17 more variables: grad_unemployed <int>,
## #   grad_unemployment_rate <dbl>, grad_p25th <dbl>, grad_median <dbl>,
## #   grad_p75th <int>, nongrad_total <int>, nongrad_employed <int>,
## #   nongrad_employed_fulltime_yearround <int>, nongrad_unemployed <int>,
## #   nongrad_unemployment_rate <dbl>, nongrad_p25th <dbl>, nongrad_median <dbl>,
## #   nongrad_p75th <dbl>, grad_share <dbl>, grad_premium <dbl>,
## #   major_category <chr>, grad_total <int>

recentgrad %>% pivot_wider(names_from = "major_category", values_from = "total")

## # A tibble: 173 x 35
##     rank major_code major sample_size   men women sharewomen employed
##    <int>      <int> <chr>       <int> <int> <int>      <dbl>    <int>
##  1     1       2419 Petr…          36  2057   282      0.121     1976
##  2     2       2416 Mini…           7   679    77      0.102      640
##  3     3       2415 Meta…           3   725   131      0.153      648
##  4     4       2417 Nava…          16  1123   135      0.107      758
##  5     5       2405 Chem…         289 21239 11021      0.342    25694
##  6     6       2418 Nucl…          17  2200   373      0.145     1857
##  7     7       6202 Actu…          51  2110  1667      0.441     2912
##  8     8       5001 Astr…          10   832   960      0.536     1526
##  9     9       2414 Mech…        1029 80320 10907      0.120    76442
## 10    10       2408 Elec…         631 65511 16016      0.196    61928
## # … with 163 more rows, and 27 more variables: employed_fulltime <int>,
## #   employed_parttime <int>, employed_fulltime_yearround <int>,
## #   unemployed <int>, unemployment_rate <dbl>, p25th <dbl>, median <dbl>,
## #   p75th <dbl>, college_jobs <int>, non_college_jobs <int>,
## #   low_wage_jobs <int>, Engineering <int>, Business <int>, `Physical
## #   Sciences` <int>, `Law & Public Policy` <int>, `Computers &
## #   Mathematics` <int>, `Agriculture & Natural Resources` <int>, `Industrial
## #   Arts & Consumer Services` <int>, Arts <int>, Health <int>, `Social
## #   Science` <int>, `Biology & Life Science` <int>, Education <int>,
## #   `Humanities & Liberal Arts` <int>, `Psychology & Social Work` <int>,
## #   `Communications & Journalism` <int>, Interdisciplinary <int>

wider2 <- recentgrad %>% pivot_wider(names_from = "major_category", values_from = "total")
wider2 %>% pivot_longer(c("Engineering", "Business", "Physical Sciences", "Law & Public Policy", "Computers & Mathematics", "Agriculture & Natural Resources", "Industrial Arts & Consumer Services", "Arts", "Health", "Social Science", "Biology & Life Science", "Psychology & Social Work", "Communications & Journalism", "Humanities & Liberal Arts", "Interdisciplinary"), names_to = "major_category", values_to = "total")

## # A tibble: 2,595 x 22
##     rank major_code major sample_size   men women sharewomen employed
##    <int>      <int> <chr>       <int> <int> <int>      <dbl>    <int>
##  1     1       2419 Petr…          36  2057   282      0.121     1976
##  2     1       2419 Petr…          36  2057   282      0.121     1976
##  3     1       2419 Petr…          36  2057   282      0.121     1976
##  4     1       2419 Petr…          36  2057   282      0.121     1976
##  5     1       2419 Petr…          36  2057   282      0.121     1976
##  6     1       2419 Petr…          36  2057   282      0.121     1976
##  7     1       2419 Petr…          36  2057   282      0.121     1976
##  8     1       2419 Petr…          36  2057   282      0.121     1976
##  9     1       2419 Petr…          36  2057   282      0.121     1976
## 10     1       2419 Petr…          36  2057   282      0.121     1976
## # … with 2,585 more rows, and 14 more variables: employed_fulltime <int>,
## #   employed_parttime <int>, employed_fulltime_yearround <int>,
## #   unemployed <int>, unemployment_rate <dbl>, p25th <dbl>, median <dbl>,
## #   p75th <dbl>, college_jobs <int>, non_college_jobs <int>,
## #   low_wage_jobs <int>, Education <int>, major_category <chr>, total <int>
…
allgradsbusiness <- allgrads %>% filter(major_category == "Business")
allgrads %>% arrange(median)

## # A tibble: 173 x 40
##    major_code major major_category grad_total grad_sample_size grad_employed
##         <int> <chr> <chr>               <int>            <int>         <int>
##  1       3501 Libr… Education           28963              314         15651
##  2       5203 Coun… Psychology & …      51812              724         38468
##  3       5201 Educ… Psychology & …      28941              396         18993
##  4       5202 Clin… Psychology & …      22716              355         16612
##  5       3609 Zool… Biology & Lif…     106415             1978         80607
##  6       3302 Comp… Humanities & …      21250              332         16723
##  7       6001 Dram… Arts                66560             1069         50690
##  8       2603 Othe… Humanities & …      46826              784         31558
##  9       2307 Earl… Education           82430             1396         63027
## 10       5502 Anth… Humanities & …     107888             1971         83632
## # … with 163 more rows, and 34 more variables:
## #   grad_employed_fulltime_yearround <int>, grad_unemployed <int>,
## #   grad_unemployment_rate <dbl>, grad_p25th <dbl>, grad_median <dbl>,
## #   grad_p75th <int>, nongrad_total <int>, nongrad_employed <int>,
## #   nongrad_employed_fulltime_yearround <int>, nongrad_unemployed <int>,
## #   nongrad_unemployment_rate <dbl>, nongrad_p25th <dbl>, nongrad_median <dbl>,
## #   nongrad_p75th <dbl>, grad_share <dbl>, grad_premium <dbl>, rank <int>,
## #   total <int>, sample_size <int>, men <int>, women <int>, sharewomen <dbl>,
## #   employed <int>, employed_fulltime <int>, employed_parttime <int>,
## #   employed_fulltime_yearround <int>, unemployed <int>,
## #   unemployment_rate <dbl>, p25th <dbl>, median <dbl>, p75th <dbl>,
## #   college_jobs <int>, non_college_jobs <int>, low_wage_jobs <int>

allgrads %>% select(major, major_category, grad_median)

## # A tibble: 173 x 3
##    major                              major_category                 grad_median
##    <chr>                              <chr>                                <dbl>
##  1 Construction Services              Industrial Arts & Consumer Se…       75000
##  2 Commercial Art And Graphic Design  Arts                                 60000
##  3 Hospitality Management             Business                             65000
##  4 Cosmetology Services And Culinary… Industrial Arts & Consumer Se…       47000
##  5 Communication Technologies         Computers & Mathematics              57000
##  6 Court Reporting                    Law & Public Policy                  75000
##  7 Marketing And Marketing Research   Business                             80000
##  8 Agriculture Production And Manage… Agriculture & Natural Resourc…       67000
##  9 Computer Programming And Data Pro… Computers & Mathematics              85000
## 10 Advertising And Public Relations   Communications & Journalism          60000
## # … with 163 more rows

allgrads %>% group_by(major, major_category, grad_median)

## # A tibble: 173 x 40
## # Groups:   major, major_category, grad_median [173]
##    major_code major major_category grad_total grad_sample_size grad_employed
##         <int> <chr> <chr>               <int>            <int>         <int>
##  1       5601 Cons… Industrial Ar…       9173              200          7098
##  2       6004 Comm… Arts                53864              882         40492
##  3       6211 Hosp… Business            24417              437         18368
##  4       2201 Cosm… Industrial Ar…       5411               72          3590
##  5       2001 Comm… Computers & M…       9109              171          7512
##  6       3201 Cour… Law & Public …       1542               22          1008
##  7       6206 Mark… Business           190996             3738        151570
##  8       1101 Agri… Agriculture &…      17488              386         13104
##  9       2101 Comp… Computers & M…       5611               98          4716
## 10       1904 Adve… Communication…      33928              688         28517
## # … with 163 more rows, and 34 more variables:
## #   grad_employed_fulltime_yearround <int>, grad_unemployed <int>,
## #   grad_unemployment_rate <dbl>, grad_p25th <dbl>, grad_median <dbl>,
## #   grad_p75th <int>, nongrad_total <int>, nongrad_employed <int>,
## #   nongrad_employed_fulltime_yearround <int>, nongrad_unemployed <int>,
## #   nongrad_unemployment_rate <dbl>, nongrad_p25th <dbl>, nongrad_median <dbl>,
## #   nongrad_p75th <dbl>, grad_share <dbl>, grad_premium <dbl>, rank <int>,
## #   total <int>, sample_size <int>, men <int>, women <int>, sharewomen <dbl>,
## #   employed <int>, employed_fulltime <int>, employed_parttime <int>,
## #   employed_fulltime_yearround <int>, unemployed <int>,
## #   unemployment_rate <dbl>, p25th <dbl>, median <dbl>, p75th <dbl>,
## #   college_jobs <int>, non_college_jobs <int>, low_wage_jobs <int>

zscore <- function(x) (x-mean(x,na.rm=T)) / sd(x,na.rm=T)
allgrads %>% mutate_at(c("grad_total","grad_employed"), list(z=zscore))

## # A tibble: 173 x 42
##    major_code major major_category grad_total grad_sample_size grad_employed
##         <int> <chr> <chr>               <int>            <int>         <int>
##  1       5601 Cons… Industrial Ar…       9173              200          7098
##  2       6004 Comm… Arts                53864              882         40492
##  3       6211 Hosp… Business            24417              437         18368
##  4       2201 Cosm… Industrial Ar…       5411               72          3590
##  5       2001 Comm… Computers & M…       9109              171          7512
##  6       3201 Cour… Law & Public …       1542               22          1008
##  7       6206 Mark… Business           190996             3738        151570
##  8       1101 Agri… Agriculture &…      17488              386         13104
##  9       2101 Comp… Computers & M…       5611               98          4716
## 10       1904 Adve… Communication…      33928              688         28517
## # … with 163 more rows, and 36 more variables:
## #   grad_employed_fulltime_yearround <int>, grad_unemployed <int>,
## #   grad_unemployment_rate <dbl>, grad_p25th <dbl>, grad_median <dbl>,
## #   grad_p75th <int>, nongrad_total <int>, nongrad_employed <int>,
## #   nongrad_employed_fulltime_yearround <int>, nongrad_unemployed <int>,
## #   nongrad_unemployment_rate <dbl>, nongrad_p25th <dbl>, nongrad_median <dbl>,
## #   nongrad_p75th <dbl>, grad_share <dbl>, grad_premium <dbl>, rank <int>,
## #   total <int>, sample_size <int>, men <int>, women <int>, sharewomen <dbl>,
## #   employed <int>, employed_fulltime <int>, employed_parttime <int>,
…
The final plot I made was a barplot. The three variables I used to create this barplot was the category of major, the number of men per major category and how many total graduates there are. Thus, with each category of major, we are able to see how many men are in that category of major and how many of those men graduated from each of those majors which I found interesting to see more people graduate from certain majors than from others and how many men chose certain majors over others.

5. Dimensionality Reduction

library(cluster)
select(allgrads, grad_total, grad_employed, grad_unemployed) 

## # A tibble: 173 x 3
##    grad_total grad_employed grad_unemployed
##         <int>         <int>           <int>
##  1       9173          7098             681
##  2      53864         40492            2482
##  3      24417         18368            1465
##  4       5411          3590             316
##  5       9109          7512             466
##  6       1542          1008               0
##  7     190996        151570            8324
##  8      17488         13104             473
##  9       5611          4716             119
## 10      33928         28517             899
## # … with 163 more rows
…
